Amsterdam 2280
Athens 1300
Barcelona 2670
Belgrade 630
Berlin 1800
Bordeaux 2100
Budapest 900
Copenhagen 2250
Dublin 2530
Glasgow 2470
Helsinki 2820
Lisbon 3950
London 2590
Lyon 1660
Madrid 3300
Milan 1750
Munich 1600
Oslo 2870
Palermo 1280
Paris 2970
Prague 1490
Rome 1140
Sofia 390
Stockholm 2890
Vienna 1150
Warsaw 946
Bucharest 0